<?xml version="1.0" encoding="utf-8"?>
<!-- Generator: Adobe Illustrator 19.2.1, SVG Export Plug-In . SVG Version: 6.00 Build 0)  -->
<svg version="1.1" id="Layer_1" xmlns="http://www.w3.org/2000/svg" xmlns:xlink="http://www.w3.org/1999/xlink" x="0px" y="0px"
	 viewBox="0 0 150 150" style="enable-background:new 0 0 150 150;" xml:space="preserve">
<style type="text/css">
	.st0{fill:#242424;}
</style>
<title>icon-css</title>
<desc>Created with Sketch.</desc>
<g>
	<path class="st0" d="M112.5,37.5H93.8V18.8C93.8,8.4,85.3,0,75,0H25c-3.5,0-6.2,2.8-6.2,6.2v137.5c0,3.5,2.8,6.2,6.2,6.2h100
		c3.5,0,6.2-2.8,6.2-6.2V56.2C131.2,45.9,122.8,37.5,112.5,37.5z M123.4,142.2H26.6V7.8h50c5.6,0,9.4,4.7,9.4,9.4v21.9
		c0,3.5,2.8,6.2,6.2,6.2h20.3c7.3,0,10.9,4.2,10.9,10.9V142.2z"/>
	<path class="st0" d="M70.7,107.4c-0.4-0.4-0.8-0.7-1.3-0.9s-1.1-0.3-1.7-0.3c-0.6,0-1.1,0.1-1.6,0.3c-0.5,0.2-0.9,0.5-1.3,0.9
		c-0.4,0.4-0.7,0.8-0.9,1.3c-0.2,0.5-0.3,1.1-0.3,1.6c0,0.6,0.1,1.1,0.3,1.6c0.2,0.5,0.5,0.9,0.9,1.3c0.4,0.4,0.8,0.7,1.3,0.9
		c0.5,0.2,1,0.3,1.6,0.3c0.6,0,1.2-0.1,1.7-0.3s1-0.5,1.3-0.9c0.4-0.4,0.7-0.8,0.9-1.3s0.3-1,0.3-1.6c0-0.6-0.1-1.1-0.3-1.6
		S71.1,107.8,70.7,107.4z"/>
	<path class="st0" d="M52.7,83.5c-1.1,0.4-2,0.9-2.7,1.7s-1.2,1.7-1.6,2.8s-0.5,2.4-0.5,3.9v3.8c0,0.7-0.1,1.4-0.2,1.9
		s-0.4,1-0.7,1.3s-0.8,0.6-1.3,0.8s-1.2,0.2-2,0.2h-1.3v4h1.3c1.5,0,2.6,0.4,3.3,1.1s1,1.8,1,3.3v5.4c0,3.1,0.7,5.3,2.2,6.7
		s3.7,2.1,6.6,2.1h1.8v-4h-1.3c-0.7,0-1.3-0.1-1.8-0.2s-1-0.4-1.4-0.8s-0.7-0.9-0.9-1.5s-0.3-1.4-0.3-2.3v-5.4
		c0-2.1-0.4-3.7-1.1-4.7s-1.9-1.6-3.4-1.8c0.8-0.1,1.4-0.3,2-0.6s1-0.7,1.4-1.2s0.6-1.1,0.8-1.9s0.3-1.7,0.3-2.7v-3.7
		c0-0.9,0.1-1.6,0.3-2.3s0.5-1.1,0.9-1.5s0.9-0.6,1.4-0.8s1.2-0.2,1.8-0.2h1.3v-4h-1.8C55.1,82.9,53.8,83.1,52.7,83.5z"/>
	<path class="st0" d="M87.5,107.4c-0.4-0.4-0.8-0.7-1.3-0.9s-1.1-0.3-1.7-0.3c-0.6,0-1.1,0.1-1.6,0.3c-0.5,0.2-0.9,0.5-1.3,0.9
		c-0.4,0.4-0.7,0.8-0.9,1.3s-0.3,1.1-0.3,1.6c0,0.6,0.1,1.1,0.3,1.6s0.5,0.9,0.9,1.3c0.4,0.4,0.8,0.7,1.3,0.9c0.5,0.2,1,0.3,1.6,0.3
		c0.6,0,1.2-0.1,1.7-0.3s1-0.5,1.3-0.9c0.4-0.4,0.7-0.8,0.9-1.3s0.3-1,0.3-1.6c0-0.6-0.1-1.1-0.3-1.6S87.9,107.8,87.5,107.4z"/>
	<path class="st0" d="M105.6,98.7c-0.6-0.7-1-1.8-1-3.3v-3.6c0-3.1-0.7-5.3-2.2-6.8s-3.7-2.1-6.6-2.1H94v4h1.4
		c0.7,0,1.3,0.1,1.8,0.2s1,0.4,1.4,0.8s0.7,0.9,0.9,1.5s0.3,1.4,0.3,2.3v3.6c0,2.1,0.4,3.7,1.1,4.7s1.9,1.6,3.4,1.8
		c-0.8,0.1-1.4,0.3-2,0.6s-1,0.7-1.4,1.2s-0.6,1.1-0.8,1.9s-0.3,1.7-0.3,2.7v5.6c0,0.9-0.1,1.6-0.3,2.3s-0.5,1.1-0.9,1.5
		s-0.9,0.6-1.4,0.8s-1.2,0.2-1.8,0.2H94v4h1.8c1.6,0,2.9-0.2,4-0.6s2-0.9,2.7-1.7s1.2-1.7,1.6-2.8s0.5-2.4,0.5-3.9v-5.6
		c0-0.7,0.1-1.4,0.2-1.9s0.4-1,0.7-1.3s0.8-0.6,1.3-0.8s1.2-0.2,2-0.2h1.4v-4h-1.4C107.3,99.8,106.2,99.4,105.6,98.7z"/>
</g>
</svg>
