<?xml version="1.0" encoding="utf-8"?>
<!-- Generator: Adobe Illustrator 19.2.1, SVG Export Plug-In . SVG Version: 6.00 Build 0)  -->
<svg version="1.1" id="Layer_1" xmlns="http://www.w3.org/2000/svg" xmlns:xlink="http://www.w3.org/1999/xlink" x="0px" y="0px"
	 viewBox="0 0 140 80" enable-background="new 0 0 140 80" xml:space="preserve">
<symbol  id="Component_-_Carousel" viewBox="0 -60 140 60">
	<path fill="#F2767A" d="M130-35.2l2.4-2.4L140-30l-7.6,7.6l-2.4-2.4l5.2-5.2L130-35.2z"/>
	<path fill="#F2767A" d="M10-24.8l-2.4,2.4L0-30l7.6-7.6l2.4,2.4L4.8-30L10-24.8z"/>
	<g>
		<rect x="16" y="-59" fill="#EAEAE9" width="107" height="57"/>
		<path fill="#2B303C" d="M122-3v-54H18v54H122 M125,0H15v-60h110V0L125,0z"/>
	</g>
	<g id="XMLID_3_">
		<g>
			<g>
				<polygon fill="#010101" points="42.9,-44 55.4,-30.3 68,-44 				"/>
				<polygon fill="#010101" points="59.9,-44 78.8,-23.5 97.6,-44 				"/>
			</g>
		</g>
	</g>
	<rect y="-60" display="none" fill="none" width="140" height="60"/>
</symbol>
<symbol  id="Entity_-_Table" viewBox="0 -80 140 80">
	<g>
		<rect x="1" y="-79" fill="#EAEAE9" width="137" height="77"/>
		<path fill="#2B303C" d="M137-3v-74H3v74H137 M140,0H0v-80h140V0L140,0z"/>
	</g>
	<rect x="7" y="-10" fill="#747982" width="18" height="3"/>
	<rect x="29" y="-77" fill="#747982" width="1" height="74"/>
	<rect x="56" y="-77" fill="#747982" width="1" height="74"/>
	<rect x="83" y="-77" fill="#747982" width="1" height="74"/>
	<rect x="110" y="-77" fill="#747982" width="1" height="74"/>
	<rect x="3" y="-15" fill="#747982" width="134" height="1"/>
	<rect x="34" y="-10" fill="#747982" width="18" height="3"/>
	<rect x="61" y="-10" fill="#747982" width="18" height="3"/>
	<rect x="88" y="-10" fill="#747982" width="18" height="3"/>
	<rect x="115" y="-10" fill="#747982" width="18" height="3"/>
	<rect y="-80" display="none" fill="none" width="140" height="80"/>
</symbol>
<symbol  id="Form_-_Checkbox" viewBox="0 -12 81 12">
	<rect x="16" y="-7" fill="#2B303C" width="65" height="3"/>
	<rect x="1" y="-11" fill="#FFFFFF" stroke="#2B303C" stroke-width="2" stroke-miterlimit="10" width="10" height="10"/>
	<rect y="-12" display="none" fill="none" width="81" height="12"/>
</symbol>
<use xlink:href="#Entity_-_Table"  width="140" height="80" y="-80" transform="matrix(1 0 0 -1 0 0)" overflow="visible"/>
</svg>
